<svg height="276.0" viewBox="-10.0 -266.0 276.0 276.0" width="276.0" xmlns="http://www.w3.org/2000/svg">
	<g>
		<circle cx="47.3" cy="-191.6" fill="rgb(239,159,94)" r="2.0" stroke="black" stroke-width="1" />
		<circle cx="44.5" cy="-225.0" fill="rgb(242,181,152)" r="2.0" stroke="black" stroke-width="1" />
		<circle cx="34.3" cy="-207.6" fill="rgb(177,253,83)" r="2.0" stroke="black" stroke-width="1" />
		<circle cx="49.5" cy="-201.0" fill="rgb(157,235,177)" r="2.0" stroke="black" stroke-width="1" />
		<circle cx="42.3" cy="-191.7" fill="rgb(249,62,195)" r="2.0" stroke="black" stroke-width="1" />
		<circle cx="39.9" cy="-212.7" fill="rgb(202,224,107)" r="2.0" stroke="black" stroke-width="1" />
		<circle cx="38.3" cy="-199.8" fill="rgb(228,1,56)" r="2.0" stroke="black" stroke-width="1" />
		<circle cx="41.2" cy="-193.0" fill="rgb(24,210,69)" r="2.0" stroke="black" stroke-width="1" />
		<circle cx="34.0" cy="-206.9" fill="rgb(124,183,233)" r="2.0" stroke="black" stroke-width="1" />
		<circle cx="68.5" cy="-189.1" fill="rgb(179,73,238)" r="2.0" stroke="black" stroke-width="1" />
		<circle cx="59.0" cy="-184.8" fill="rgb(120,222,244)" r="2.0" stroke="black" stroke-width="1" />
		<circle cx="51.5" cy="-187.9" fill="rgb(249,164,44)" r="2.0" stroke="black" stroke-width="1" />
		<circle cx="69.0" cy="-199.3" fill="rgb(226,70,153)" r="2.0" stroke="black" stroke-width="1" />
		<circle cx="50.6" cy="-183.2" fill="rgb(157,221,234)" r="2.0" stroke="black" stroke-width="1" />
		<circle cx="55.0" cy="-220.8" fill="rgb(69,86,234)" r="2.0" stroke="black" stroke-width="1" />
		<circle cx="75.8" cy="-207.9" fill="rgb(247,225,95)" r="2.0" stroke="black" stroke-width="1" />
		<circle cx="53.5" cy="-209.1" fill="rgb(222,124,243)" r="2.0" stroke="black" stroke-width="1" />
		<circle cx="55.9" cy="-198.1" fill="rgb(239,146,181)" r="2.0" stroke="black" stroke-width="1" />
		<circle cx="60.3" cy="-197.1" fill="rgb(124,227,180)" r="2.0" stroke="black" stroke-width="1" />
		<circle cx="49.2" cy="-186.3" fill="rgb(232,91,229)" r="2.0" stroke="black" stroke-width="1" />
		<circle cx="52.5" cy="-183.3" fill="rgb(127,164,207)" r="2.0" stroke="black" stroke-width="1" />
		<circle cx="58.4" cy="-204.2" fill="rgb(227,17,176)" r="2.0" stroke="black" stroke-width="1" />
		<circle cx="44.2" cy="-216.1" fill="rgb(230,148,242)" r="2.0" stroke="black" stroke-width="1" />
		<circle cx="37.9" cy="-199.3" fill="rgb(112,168,224)" r="2.0" stroke="black" stroke-width="1" />
		<circle cx="37.0" cy="-224.4" fill="rgb(219,119,68)" r="2.0" stroke="black" stroke-width="1" />
		<circle cx="54.0" cy="-190.1" fill="rgb(106,105,215)" r="2.0" stroke="black" stroke-width="1" />
		<circle cx="51.0" cy="-181.5" fill="rgb(113,233,177)" r="2.0" stroke="black" stroke-width="1" />
		<circle cx="65.4" cy="-183.5" fill="rgb(145,247,23)" r="2.0" stroke="black" stroke-width="1" />
		<circle cx="43.8" cy="-213.7" fill="rgb(118,192,240)" r="2.0" stroke="black" stroke-width="1" />
		<circle cx="53.2" cy="-212.0" fill="rgb(224,222,76)" r="2.0" stroke="black" stroke-width="1" />
		<circle cx="46.0" cy="-229.4" fill="rgb(153,233,172)" r="2.0" stroke="black" stroke-width="1" />
		<circle cx="43.0" cy="-190.5" fill="rgb(97,219,230)" r="2.0" stroke="black" stroke-width="1" />
		<circle cx="28.6" cy="-202.3" fill="rgb(68,163,223)" r="2.0" stroke="black" stroke-width="1" />
		<circle cx="39.1" cy="-205.1" fill="rgb(177,137,238)" r="2.0" stroke="black" stroke-width="1" />
		<circle cx="50.4" cy="-197.7" fill="rgb(114,249,163)" r="2.0" stroke="black" stroke-width="1" />
		<circle cx="39.8" cy="-190.6" fill="rgb(216,79,176)" r="2.0" stroke="black" stroke-width="1" />
		<circle cx="44.2" cy="-216.1" fill="rgb(22,249,76)" r="2.0" stroke="black" stroke-width="1" />
		<circle cx="39.5" cy="-220.0" fill="rgb(12,191,229)" r="2.0" stroke="black" stroke-width="1" />
		<circle cx="58.8" cy="-206.9" fill="rgb(61,44,229)" r="2.0" stroke="black" stroke-width="1" />
		<circle cx="29.5" cy="-208.6" fill="rgb(146,245,242)" r="2.0" stroke="black" stroke-width="1" />
		<circle cx="45.5" cy="-195.4" fill="rgb(77,59,222)" r="2.0" stroke="black" stroke-width="1" />
		<circle cx="41.8" cy="-206.8" fill="rgb(205,119,203)" r="2.0" stroke="black" stroke-width="1" />
		<circle cx="64.5" cy="-197.5" fill="rgb(176,232,145)" r="2.0" stroke="black" stroke-width="1" />
		<circle cx="44.8" cy="-192.9" fill="rgb(42,198,244)" r="2.0" stroke="black" stroke-width="1" />
		<circle cx="38.3" cy="-209.5" fill="rgb(213,198,99)" r="2.0" stroke="black" stroke-width="1" />
		<circle cx="47.1" cy="-184.0" fill="rgb(217,11,100)" r="2.0" stroke="black" stroke-width="1" />
		<circle cx="41.4" cy="-197.9" fill="rgb(212,78,101)" r="2.0" stroke="black" stroke-width="1" />
		<circle cx="54.6" cy="-185.9" fill="rgb(219,131,242)" r="2.0" stroke="black" stroke-width="1" />
		<circle cx="36.6" cy="-205.0" fill="rgb(216,26,247)" r="2.0" stroke="black" stroke-width="1" />
		<circle cx="45.1" cy="-199.3" fill="rgb(26,84,219)" r="2.0" stroke="black" stroke-width="1" />
		<circle cx="50.8" cy="-148.0" fill="rgb(239,159,94)" r="2.0" stroke="black" stroke-width="1" />
		<circle cx="63.6" cy="-136.3" fill="rgb(239,159,94)" r="2.0" stroke="black" stroke-width="1" />
		<circle cx="122.0" cy="-127.6" fill="rgb(239,159,94)" r="2.0" stroke="black" stroke-width="1" />
		<circle cx="126.8" cy="-130.1" fill="rgb(239,159,94)" r="2.0" stroke="black" stroke-width="1" />
		<circle cx="88.5" cy="-106.4" fill="rgb(239,159,94)" r="2.0" stroke="black" stroke-width="1" />
		<circle cx="72.6" cy="-142.0" fill="rgb(239,159,94)" r="2.0" stroke="black" stroke-width="1" />
		<circle cx="46.1" cy="-117.4" fill="rgb(239,159,94)" r="2.0" stroke="black" stroke-width="1" />
		<circle cx="88.8" cy="-121.9" fill="rgb(239,159,94)" r="2.0" stroke="black" stroke-width="1" />
		<circle cx="117.9" cy="-148.7" fill="rgb(239,159,94)" r="2.0" stroke="black" stroke-width="1" />
		<circle cx="125.5" cy="-138.8" fill="rgb(239,159,94)" r="2.0" stroke="black" stroke-width="1" />
		<circle cx="39.2" cy="-123.6" fill="rgb(239,159,94)" r="2.0" stroke="black" stroke-width="1" />
		<circle cx="70.5" cy="-122.7" fill="rgb(239,159,94)" r="2.0" stroke="black" stroke-width="1" />
		<circle cx="50.7" cy="-117.8" fill="rgb(239,159,94)" r="2.0" stroke="black" stroke-width="1" />
		<circle cx="48.7" cy="-134.6" fill="rgb(239,159,94)" r="2.0" stroke="black" stroke-width="1" />
		<circle cx="64.1" cy="-123.6" fill="rgb(239,159,94)" r="2.0" stroke="black" stroke-width="1" />
		<circle cx="55.1" cy="-102.5" fill="rgb(239,159,94)" r="2.0" stroke="black" stroke-width="1" />
		<circle cx="65.0" cy="-127.0" fill="rgb(239,159,94)" r="2.0" stroke="black" stroke-width="1" />
		<circle cx="107.8" cy="-114.3" fill="rgb(239,159,94)" r="2.0" stroke="black" stroke-width="1" />
		<circle cx="84.5" cy="-142.2" fill="rgb(239,159,94)" r="2.0" stroke="black" stroke-width="1" />
		<circle cx="55.4" cy="-105.4" fill="rgb(239,159,94)" r="2.0" stroke="black" stroke-width="1" />
		<circle cx="112.6" cy="-131.2" fill="rgb(239,159,94)" r="2.0" stroke="black" stroke-width="1" />
		<circle cx="69.5" cy="-126.9" fill="rgb(239,159,94)" r="2.0" stroke="black" stroke-width="1" />
		<circle cx="109.2" cy="-148.5" fill="rgb(239,159,94)" r="2.0" stroke="black" stroke-width="1" />
		<circle cx="122.6" cy="-129.1" fill="rgb(239,159,94)" r="2.0" stroke="black" stroke-width="1" />
		<circle cx="86.0" cy="-141.4" fill="rgb(239,159,94)" r="2.0" stroke="black" stroke-width="1" />
		<circle cx="116.2" cy="-141.6" fill="rgb(239,159,94)" r="2.0" stroke="black" stroke-width="1" />
		<circle cx="52.7" cy="-126.6" fill="rgb(239,159,94)" r="2.0" stroke="black" stroke-width="1" />
		<circle cx="66.9" cy="-144.9" fill="rgb(239,159,94)" r="2.0" stroke="black" stroke-width="1" />
		<circle cx="59.6" cy="-131.2" fill="rgb(239,159,94)" r="2.0" stroke="black" stroke-width="1" />
		<circle cx="42.7" cy="-114.2" fill="rgb(239,159,94)" r="2.0" stroke="black" stroke-width="1" />
		<circle cx="111.2" cy="-104.1" fill="rgb(239,159,94)" r="2.0" stroke="black" stroke-width="1" />
		<circle cx="87.0" cy="-126.4" fill="rgb(239,159,94)" r="2.0" stroke="black" stroke-width="1" />
		<circle cx="55.0" cy="-109.0" fill="rgb(239,159,94)" r="2.0" stroke="black" stroke-width="1" />
		<circle cx="73.1" cy="-150.0" fill="rgb(239,159,94)" r="2.0" stroke="black" stroke-width="1" />
		<circle cx="62.1" cy="-108.5" fill="rgb(239,159,94)" r="2.0" stroke="black" stroke-width="1" />
		<circle cx="93.3" cy="-110.4" fill="rgb(239,159,94)" r="2.0" stroke="black" stroke-width="1" />
		<circle cx="103.6" cy="-136.9" fill="rgb(239,159,94)" r="2.0" stroke="black" stroke-width="1" />
		<circle cx="121.6" cy="-150.8" fill="rgb(239,159,94)" r="2.0" stroke="black" stroke-width="1" />
		<circle cx="76.2" cy="-137.5" fill="rgb(239,159,94)" r="2.0" stroke="black" stroke-width="1" />
		<circle cx="57.4" cy="-139.0" fill="rgb(239,159,94)" r="2.0" stroke="black" stroke-width="1" />
		<circle cx="120.2" cy="-151.9" fill="rgb(239,159,94)" r="2.0" stroke="black" stroke-width="1" />
		<circle cx="103.2" cy="-138.3" fill="rgb(239,159,94)" r="2.0" stroke="black" stroke-width="1" />
		<circle cx="59.1" cy="-140.3" fill="rgb(239,159,94)" r="2.0" stroke="black" stroke-width="1" />
		<circle cx="108.3" cy="-128.0" fill="rgb(239,159,94)" r="2.0" stroke="black" stroke-width="1" />
		<circle cx="103.1" cy="-144.1" fill="rgb(239,159,94)" r="2.0" stroke="black" stroke-width="1" />
		<circle cx="167.9" cy="-132.6" fill="rgb(120,222,244)" r="2.0" stroke="black" stroke-width="1" />
		<circle cx="175.4" cy="-130.7" fill="rgb(120,222,244)" r="2.0" stroke="black" stroke-width="1" />
		<circle cx="209.2" cy="-135.9" fill="rgb(120,222,244)" r="2.0" stroke="black" stroke-width="1" />
		<circle cx="209.1" cy="-140.8" fill="rgb(120,222,244)" r="2.0" stroke="black" stroke-width="1" />
		<circle cx="187.8" cy="-122.2" fill="rgb(120,222,244)" r="2.0" stroke="black" stroke-width="1" />
		<circle cx="205.1" cy="-120.7" fill="rgb(120,222,244)" r="2.0" stroke="black" stroke-width="1" />
		<circle cx="196.6" cy="-106.6" fill="rgb(120,222,244)" r="2.0" stroke="black" stroke-width="1" />
		<circle cx="160.7" cy="-147.6" fill="rgb(120,222,244)" r="2.0" stroke="black" stroke-width="1" />
		<circle cx="185.5" cy="-145.7" fill="rgb(120,222,244)" r="2.0" stroke="black" stroke-width="1" />
		<circle cx="203.7" cy="-117.8" fill="rgb(120,222,244)" r="2.0" stroke="black" stroke-width="1" />
		<circle cx="213.5" cy="-103.8" fill="rgb(120,222,244)" r="2.0" stroke="black" stroke-width="1" />
		<circle cx="135.1" cy="-120.1" fill="rgb(120,222,244)" r="2.0" stroke="black" stroke-width="1" />
		<circle cx="217.4" cy="-134.5" fill="rgb(120,222,244)" r="2.0" stroke="black" stroke-width="1" />
		<circle cx="211.0" cy="-120.6" fill="rgb(120,222,244)" r="2.0" stroke="black" stroke-width="1" />
		<circle cx="201.4" cy="-148.8" fill="rgb(120,222,244)" r="2.0" stroke="black" stroke-width="1" />
		<circle cx="131.8" cy="-114.8" fill="rgb(120,222,244)" r="2.0" stroke="black" stroke-width="1" />
		<circle cx="131.5" cy="-105.7" fill="rgb(120,222,244)" r="2.0" stroke="black" stroke-width="1" />
		<circle cx="168.7" cy="-108.6" fill="rgb(120,222,244)" r="2.0" stroke="black" stroke-width="1" />
		<circle cx="164.9" cy="-107.5" fill="rgb(120,222,244)" r="2.0" stroke="black" stroke-width="1" />
		<circle cx="154.1" cy="-102.9" fill="rgb(120,222,244)" r="2.0" stroke="black" stroke-width="1" />
		<circle cx="128.4" cy="-145.2" fill="rgb(120,222,244)" r="2.0" stroke="black" stroke-width="1" />
		<circle cx="194.2" cy="-138.1" fill="rgb(120,222,244)" r="2.0" stroke="black" stroke-width="1" />
		<circle cx="215.0" cy="-110.3" fill="rgb(120,222,244)" r="2.0" stroke="black" stroke-width="1" />
		<circle cx="209.6" cy="-135.9" fill="rgb(120,222,244)" r="2.0" stroke="black" stroke-width="1" />
		<circle cx="137.5" cy="-133.0" fill="rgb(120,222,244)" r="2.0" stroke="black" stroke-width="1" />
		<circle cx="149.2" cy="-117.1" fill="rgb(120,222,244)" r="2.0" stroke="black" stroke-width="1" />
		<circle cx="131.5" cy="-126.1" fill="rgb(120,222,244)" r="2.0" stroke="black" stroke-width="1" />
		<circle cx="153.4" cy="-111.8" fill="rgb(120,222,244)" r="2.0" stroke="black" stroke-width="1" />
		<circle cx="205.9" cy="-130.9" fill="rgb(120,222,244)" r="2.0" stroke="black" stroke-width="1" />
		<circle cx="160.6" cy="-128.6" fill="rgb(120,222,244)" r="2.0" stroke="black" stroke-width="1" />
		<circle cx="190.8" cy="-110.9" fill="rgb(120,222,244)" r="2.0" stroke="black" stroke-width="1" />
		<circle cx="212.6" cy="-138.6" fill="rgb(120,222,244)" r="2.0" stroke="black" stroke-width="1" />
		<circle cx="163.2" cy="-113.0" fill="rgb(120,222,244)" r="2.0" stroke="black" stroke-width="1" />
		<circle cx="141.1" cy="-103.4" fill="rgb(120,222,244)" r="2.0" stroke="black" stroke-width="1" />
		<circle cx="171.0" cy="-137.4" fill="rgb(120,222,244)" r="2.0" stroke="black" stroke-width="1" />
		<circle cx="141.3" cy="-123.7" fill="rgb(120,222,244)" r="2.0" stroke="black" stroke-width="1" />
		<circle cx="165.1" cy="-144.0" fill="rgb(120,222,244)" r="2.0" stroke="black" stroke-width="1" />
		<circle cx="205.9" cy="-128.9" fill="rgb(120,222,244)" r="2.0" stroke="black" stroke-width="1" />
		<circle cx="147.1" cy="-149.4" fill="rgb(120,222,244)" r="2.0" stroke="black" stroke-width="1" />
		<circle cx="167.0" cy="-150.4" fill="rgb(120,222,244)" r="2.0" stroke="black" stroke-width="1" />
		<circle cx="159.8" cy="-148.7" fill="rgb(120,222,244)" r="2.0" stroke="black" stroke-width="1" />
		<circle cx="205.2" cy="-144.3" fill="rgb(120,222,244)" r="2.0" stroke="black" stroke-width="1" />
		<circle cx="131.1" cy="-135.0" fill="rgb(120,222,244)" r="2.0" stroke="black" stroke-width="1" />
		<circle cx="130.5" cy="-130.9" fill="rgb(120,222,244)" r="2.0" stroke="black" stroke-width="1" />
		<circle cx="211.4" cy="-127.8" fill="rgb(120,222,244)" r="2.0" stroke="black" stroke-width="1" />
		<circle cx="172.9" cy="-111.6" fill="rgb(120,222,244)" r="2.0" stroke="black" stroke-width="1" />
		<circle cx="153.7" cy="-123.1" fill="rgb(120,222,244)" r="2.0" stroke="black" stroke-width="1" />
		<circle cx="157.3" cy="-118.9" fill="rgb(120,222,244)" r="2.0" stroke="black" stroke-width="1" />
		<circle cx="147.9" cy="-143.5" fill="rgb(120,222,244)" r="2.0" stroke="black" stroke-width="1" />
		<circle cx="174.8" cy="-106.9" fill="rgb(120,222,244)" r="2.0" stroke="black" stroke-width="1" />
		<circle cx="129.6" cy="-126.1" fill="rgb(120,222,244)" r="2.0" stroke="black" stroke-width="1" />
		<circle cx="177.4" cy="-129.5" fill="rgb(120,222,244)" r="2.0" stroke="black" stroke-width="1" />
		<circle cx="150.7" cy="-123.9" fill="rgb(120,222,244)" r="2.0" stroke="black" stroke-width="1" />
		<circle cx="144.6" cy="-140.3" fill="rgb(120,222,244)" r="2.0" stroke="black" stroke-width="1" />
		<circle cx="153.7" cy="-116.7" fill="rgb(120,222,244)" r="2.0" stroke="black" stroke-width="1" />
		<circle cx="184.4" cy="-37.2" fill="rgb(147,207,34)" r="2.0" stroke="black" stroke-width="1" />
		<circle cx="219.5" cy="-60.9" fill="rgb(225,80,111)" r="2.0" stroke="black" stroke-width="1" />
		<circle cx="224.9" cy="-50.0" fill="rgb(63,230,146)" r="2.0" stroke="black" stroke-width="1" />
		<circle cx="204.6" cy="-53.8" fill="rgb(237,25,180)" r="2.0" stroke="black" stroke-width="1" />
		<circle cx="195.6" cy="-47.7" fill="rgb(74,69,209)" r="2.0" stroke="black" stroke-width="1" />
		<circle cx="207.9" cy="-72.8" fill="rgb(210,123,134)" r="2.0" stroke="black" stroke-width="1" />
		<circle cx="188.2" cy="-58.1" fill="rgb(116,221,122)" r="2.0" stroke="black" stroke-width="1" />
		<circle cx="208.1" cy="-43.7" fill="rgb(99,255,226)" r="2.0" stroke="black" stroke-width="1" />
		<circle cx="213.4" cy="-73.4" fill="rgb(182,142,207)" r="2.0" stroke="black" stroke-width="1" />
		<circle cx="193.9" cy="-32.0" fill="rgb(238,74,18)" r="2.0" stroke="black" stroke-width="1" />
		<circle cx="210.5" cy="-30.4" fill="rgb(152,24,216)" r="2.0" stroke="black" stroke-width="1" />
		<circle cx="197.1" cy="-36.9" fill="rgb(217,206,83)" r="2.0" stroke="black" stroke-width="1" />
		<circle cx="191.0" cy="-42.4" fill="rgb(244,83,134)" r="2.0" stroke="black" stroke-width="1" />
		<circle cx="223.4" cy="-55.8" fill="rgb(37,178,206)" r="2.0" stroke="black" stroke-width="1" />
		<circle cx="209.2" cy="-36.1" fill="rgb(6,251,112)" r="2.0" stroke="black" stroke-width="1" />
		<circle cx="180.4" cy="-49.8" fill="rgb(209,29,66)" r="2.0" stroke="black" stroke-width="1" />
		<circle cx="182.7" cy="-46.8" fill="rgb(88,157,210)" r="2.0" stroke="black" stroke-width="1" />
		<circle cx="195.7" cy="-73.4" fill="rgb(230,159,171)" r="2.0" stroke="black" stroke-width="1" />
		<circle cx="190.7" cy="-69.9" fill="rgb(176,80,215)" r="2.0" stroke="black" stroke-width="1" />
		<circle cx="204.7" cy="-48.3" fill="rgb(230,166,70)" r="2.0" stroke="black" stroke-width="1" />
		<circle cx="222.1" cy="-59.5" fill="rgb(50,57,225)" r="2.0" stroke="black" stroke-width="1" />
		<circle cx="198.9" cy="-69.1" fill="rgb(105,231,55)" r="2.0" stroke="black" stroke-width="1" />
		<circle cx="192.6" cy="-36.3" fill="rgb(251,188,65)" r="2.0" stroke="black" stroke-width="1" />
		<circle cx="221.8" cy="-34.4" fill="rgb(180,208,98)" r="2.0" stroke="black" stroke-width="1" />
		<circle cx="189.6" cy="-34.6" fill="rgb(213,246,171)" r="2.0" stroke="black" stroke-width="1" />
		<circle cx="192.0" cy="-38.1" fill="rgb(236,82,236)" r="2.0" stroke="black" stroke-width="1" />
		<circle cx="186.2" cy="-39.4" fill="rgb(220,115,212)" r="2.0" stroke="black" stroke-width="1" />
		<circle cx="205.9" cy="-49.0" fill="rgb(34,209,184)" r="2.0" stroke="black" stroke-width="1" />
		<circle cx="223.4" cy="-66.4" fill="rgb(99,214,8)" r="2.0" stroke="black" stroke-width="1" />
		<circle cx="209.3" cy="-45.4" fill="rgb(240,211,130)" r="2.0" stroke="black" stroke-width="1" />
		<circle cx="193.1" cy="-73.5" fill="rgb(212,82,210)" r="2.0" stroke="black" stroke-width="1" />
		<circle cx="220.6" cy="-60.0" fill="rgb(177,122,232)" r="2.0" stroke="black" stroke-width="1" />
		<circle cx="200.3" cy="-51.5" fill="rgb(142,250,240)" r="2.0" stroke="black" stroke-width="1" />
		<circle cx="212.0" cy="-28.7" fill="rgb(68,207,110)" r="2.0" stroke="black" stroke-width="1" />
		<circle cx="182.4" cy="-41.9" fill="rgb(232,192,146)" r="2.0" stroke="black" stroke-width="1" />
		<circle cx="215.7" cy="-41.6" fill="rgb(205,133,79)" r="2.0" stroke="black" stroke-width="1" />
		<circle cx="201.2" cy="-31.1" fill="rgb(155,39,221)" r="2.0" stroke="black" stroke-width="1" />
		<circle cx="227.6" cy="-54.9" fill="rgb(211,123,237)" r="2.0" stroke="black" stroke-width="1" />
		<circle cx="220.7" cy="-37.1" fill="rgb(219,241,54)" r="2.0" stroke="black" stroke-width="1" />
		<circle cx="221.3" cy="-33.5" fill="rgb(206,95,182)" r="2.0" stroke="black" stroke-width="1" />
		<circle cx="201.7" cy="-38.9" fill="rgb(39,195,207)" r="2.0" stroke="black" stroke-width="1" />
		<circle cx="189.7" cy="-63.4" fill="rgb(207,248,33)" r="2.0" stroke="black" stroke-width="1" />
		<circle cx="223.0" cy="-35.9" fill="rgb(128,208,156)" r="2.0" stroke="black" stroke-width="1" />
		<circle cx="187.0" cy="-69.4" fill="rgb(230,222,138)" r="2.0" stroke="black" stroke-width="1" />
		<circle cx="182.6" cy="-52.2" fill="rgb(101,228,8)" r="2.0" stroke="black" stroke-width="1" />
		<circle cx="200.7" cy="-35.4" fill="rgb(239,255,90)" r="2.0" stroke="black" stroke-width="1" />
		<circle cx="198.2" cy="-37.7" fill="rgb(69,134,221)" r="2.0" stroke="black" stroke-width="1" />
		<circle cx="199.4" cy="-28.6" fill="rgb(209,45,169)" r="2.0" stroke="black" stroke-width="1" />
		<circle cx="208.5" cy="-40.1" fill="rgb(213,78,74)" r="2.0" stroke="black" stroke-width="1" />
		<circle cx="189.3" cy="-35.2" fill="rgb(250,17,153)" r="2.0" stroke="black" stroke-width="1" />
		<rect fill="none" height="49.4" stroke="black" stroke-width="1" width="87.6" x="39.2" y="-151.9" />
		<rect fill="none" height="47.5" stroke="black" stroke-width="1" width="88.9" x="128.4" y="-150.4" />
		<rect fill="none" height="256.0" stroke="none" stroke-width="1" width="256.0" x="0.0" y="-256.0" />
	</g>
</svg>