<svg height="276.9" viewBox="-11.8 -266.0 277.8 276.9" width="277.8" xmlns="http://www.w3.org/2000/svg">
	<g>
		<rect fill="none" height="251.6" stroke="black" stroke-width="1" width="253.1" x="0.2" y="-252.6" />
		<rect fill="none" height="249.9" stroke="black" stroke-width="1" width="124.7" x="128.6" y="-251.5" />
		<rect fill="none" height="123.9" stroke="black" stroke-width="1" width="118.8" x="129.5" y="-251.5" />
		<rect fill="none" height="58.8" stroke="black" stroke-width="1" width="118.8" x="129.5" y="-251.5" />
		<rect fill="none" height="54.6" stroke="black" stroke-width="1" width="57.2" x="191.1" y="-251.5" />
		<rect fill="none" height="22.0" stroke="black" stroke-width="1" width="20.5" x="227.8" y="-241.9" />
		<circle cx="227.8" cy="-234.7" fill="rgb(141,219,161)" r="2.0" stroke="black" stroke-width="1" />
		<circle cx="240.7" cy="-241.9" fill="rgb(141,219,161)" r="2.0" stroke="black" stroke-width="1" />
		<circle cx="248.3" cy="-235.0" fill="rgb(141,219,161)" r="2.0" stroke="black" stroke-width="1" />
		<circle cx="243.8" cy="-219.8" fill="rgb(141,219,161)" r="2.0" stroke="black" stroke-width="1" />
		<circle cx="230.7" cy="-229.8" fill="rgb(141,219,161)" r="2.0" stroke="black" stroke-width="1" />
		<rect fill="none" height="54.6" stroke="black" stroke-width="1" width="24.4" x="191.1" y="-251.5" />
		<circle cx="192.9" cy="-251.5" fill="rgb(73,240,219)" r="2.0" stroke="black" stroke-width="1" />
		<circle cx="215.6" cy="-228.0" fill="rgb(73,240,219)" r="2.0" stroke="black" stroke-width="1" />
		<circle cx="191.1" cy="-231.2" fill="rgb(73,240,219)" r="2.0" stroke="black" stroke-width="1" />
		<circle cx="214.6" cy="-244.2" fill="rgb(73,240,219)" r="2.0" stroke="black" stroke-width="1" />
		<circle cx="194.7" cy="-229.9" fill="rgb(73,240,219)" r="2.0" stroke="black" stroke-width="1" />
		<circle cx="191.8" cy="-196.9" fill="rgb(73,240,219)" r="2.0" stroke="black" stroke-width="1" />
		<circle cx="210.2" cy="-235.6" fill="rgb(73,240,219)" r="2.0" stroke="black" stroke-width="1" />
		<rect fill="none" height="46.5" stroke="black" stroke-width="1" width="52.6" x="129.5" y="-239.3" />
		<circle cx="133.0" cy="-239.3" fill="rgb(221,34,38)" r="2.0" stroke="black" stroke-width="1" />
		<circle cx="129.5" cy="-220.4" fill="rgb(221,34,38)" r="2.0" stroke="black" stroke-width="1" />
		<circle cx="162.2" cy="-192.8" fill="rgb(221,34,38)" r="2.0" stroke="black" stroke-width="1" />
		<circle cx="179.1" cy="-194.1" fill="rgb(221,34,38)" r="2.0" stroke="black" stroke-width="1" />
		<circle cx="182.2" cy="-221.1" fill="rgb(221,34,38)" r="2.0" stroke="black" stroke-width="1" />
		<circle cx="146.6" cy="-208.7" fill="rgb(221,34,38)" r="2.0" stroke="black" stroke-width="1" />
		<circle cx="154.0" cy="-212.8" fill="rgb(221,34,38)" r="2.0" stroke="black" stroke-width="1" />
		<rect fill="none" height="61.6" stroke="black" stroke-width="1" width="108.3" x="136.0" y="-189.2" />
		<rect fill="none" height="52.2" stroke="black" stroke-width="1" width="52.8" x="191.6" y="-179.8" />
		<rect fill="none" height="16.0" stroke="black" stroke-width="1" width="6.1" x="238.2" y="-179.8" />
		<circle cx="238.2" cy="-175.8" fill="rgb(88,202,227)" r="2.0" stroke="black" stroke-width="1" />
		<circle cx="244.3" cy="-179.8" fill="rgb(88,202,227)" r="2.0" stroke="black" stroke-width="1" />
		<circle cx="243.0" cy="-169.5" fill="rgb(88,202,227)" r="2.0" stroke="black" stroke-width="1" />
		<circle cx="238.6" cy="-163.7" fill="rgb(88,202,227)" r="2.0" stroke="black" stroke-width="1" />
		<circle cx="239.6" cy="-166.8" fill="rgb(88,202,227)" r="2.0" stroke="black" stroke-width="1" />
		<rect fill="none" height="51.9" stroke="black" stroke-width="1" width="25.0" x="191.6" y="-179.5" />
		<circle cx="195.1" cy="-179.5" fill="rgb(147,216,163)" r="2.0" stroke="black" stroke-width="1" />
		<circle cx="216.6" cy="-131.4" fill="rgb(147,216,163)" r="2.0" stroke="black" stroke-width="1" />
		<circle cx="191.6" cy="-127.6" fill="rgb(147,216,163)" r="2.0" stroke="black" stroke-width="1" />
		<circle cx="205.6" cy="-166.7" fill="rgb(147,216,163)" r="2.0" stroke="black" stroke-width="1" />
		<circle cx="211.1" cy="-162.0" fill="rgb(147,216,163)" r="2.0" stroke="black" stroke-width="1" />
		<circle cx="214.1" cy="-174.2" fill="rgb(147,216,163)" r="2.0" stroke="black" stroke-width="1" />
		<circle cx="203.5" cy="-162.5" fill="rgb(147,216,163)" r="2.0" stroke="black" stroke-width="1" />
		<circle cx="193.0" cy="-178.1" fill="rgb(147,216,163)" r="2.0" stroke="black" stroke-width="1" />
		<circle cx="214.1" cy="-176.0" fill="rgb(147,216,163)" r="2.0" stroke="black" stroke-width="1" />
		<circle cx="213.6" cy="-130.5" fill="rgb(147,216,163)" r="2.0" stroke="black" stroke-width="1" />
		<rect fill="none" height="54.3" stroke="black" stroke-width="1" width="50.5" x="136.0" y="-189.2" />
		<rect fill="none" height="18.4" stroke="black" stroke-width="1" width="49.2" x="137.3" y="-189.2" />
		<circle cx="183.2" cy="-186.8" fill="rgb(212,161,91)" r="2.0" stroke="black" stroke-width="1" />
		<circle cx="186.5" cy="-173.1" fill="rgb(212,161,91)" r="2.0" stroke="black" stroke-width="1" />
		<circle cx="137.3" cy="-189.2" fill="rgb(212,161,91)" r="2.0" stroke="black" stroke-width="1" />
		<circle cx="178.8" cy="-172.7" fill="rgb(212,161,91)" r="2.0" stroke="black" stroke-width="1" />
		<circle cx="140.5" cy="-170.8" fill="rgb(212,161,91)" r="2.0" stroke="black" stroke-width="1" />
		<circle cx="146.3" cy="-171.0" fill="rgb(212,161,91)" r="2.0" stroke="black" stroke-width="1" />
		<rect fill="none" height="26.3" stroke="black" stroke-width="1" width="49.7" x="136.0" y="-161.2" />
		<circle cx="167.4" cy="-134.9" fill="rgb(155,102,206)" r="2.0" stroke="black" stroke-width="1" />
		<circle cx="185.7" cy="-161.2" fill="rgb(155,102,206)" r="2.0" stroke="black" stroke-width="1" />
		<circle cx="180.0" cy="-150.5" fill="rgb(155,102,206)" r="2.0" stroke="black" stroke-width="1" />
		<circle cx="150.6" cy="-135.3" fill="rgb(155,102,206)" r="2.0" stroke="black" stroke-width="1" />
		<circle cx="181.6" cy="-160.5" fill="rgb(155,102,206)" r="2.0" stroke="black" stroke-width="1" />
		<circle cx="136.0" cy="-147.0" fill="rgb(155,102,206)" r="2.0" stroke="black" stroke-width="1" />
		<circle cx="156.4" cy="-141.3" fill="rgb(155,102,206)" r="2.0" stroke="black" stroke-width="1" />
		<rect fill="none" height="124.3" stroke="black" stroke-width="1" width="124.7" x="128.6" y="-125.9" />
		<rect fill="none" height="123.0" stroke="black" stroke-width="1" width="60.8" x="192.4" y="-125.9" />
		<rect fill="none" height="37.7" stroke="black" stroke-width="1" width="55.1" x="192.4" y="-125.9" />
		<circle cx="246.0" cy="-125.1" fill="rgb(129,243,120)" r="2.0" stroke="black" stroke-width="1" />
		<circle cx="226.7" cy="-105.0" fill="rgb(129,243,120)" r="2.0" stroke="black" stroke-width="1" />
		<circle cx="238.5" cy="-115.8" fill="rgb(129,243,120)" r="2.0" stroke="black" stroke-width="1" />
		<circle cx="224.4" cy="-106.0" fill="rgb(129,243,120)" r="2.0" stroke="black" stroke-width="1" />
		<circle cx="206.5" cy="-112.6" fill="rgb(129,243,120)" r="2.0" stroke="black" stroke-width="1" />
		<circle cx="242.6" cy="-99.5" fill="rgb(129,243,120)" r="2.0" stroke="black" stroke-width="1" />
		<circle cx="192.4" cy="-111.8" fill="rgb(129,243,120)" r="2.0" stroke="black" stroke-width="1" />
		<circle cx="247.5" cy="-103.3" fill="rgb(129,243,120)" r="2.0" stroke="black" stroke-width="1" />
		<circle cx="194.0" cy="-88.2" fill="rgb(129,243,120)" r="2.0" stroke="black" stroke-width="1" />
		<circle cx="206.1" cy="-125.9" fill="rgb(129,243,120)" r="2.0" stroke="black" stroke-width="1" />
		<rect fill="none" height="56.1" stroke="black" stroke-width="1" width="56.9" x="196.4" y="-58.9" />
		<rect fill="none" height="56.1" stroke="black" stroke-width="1" width="26.8" x="226.5" y="-58.9" />
		<circle cx="226.5" cy="-18.6" fill="rgb(206,154,136)" r="2.0" stroke="black" stroke-width="1" />
		<circle cx="232.7" cy="-55.1" fill="rgb(206,154,136)" r="2.0" stroke="black" stroke-width="1" />
		<circle cx="253.3" cy="-35.6" fill="rgb(206,154,136)" r="2.0" stroke="black" stroke-width="1" />
		<circle cx="251.7" cy="-2.9" fill="rgb(206,154,136)" r="2.0" stroke="black" stroke-width="1" />
		<circle cx="242.2" cy="-34.3" fill="rgb(206,154,136)" r="2.0" stroke="black" stroke-width="1" />
		<circle cx="230.3" cy="-58.9" fill="rgb(206,154,136)" r="2.0" stroke="black" stroke-width="1" />
		<circle cx="249.4" cy="-51.8" fill="rgb(206,154,136)" r="2.0" stroke="black" stroke-width="1" />
		<rect fill="none" height="35.7" stroke="black" stroke-width="1" width="23.8" x="196.4" y="-41.4" />
		<circle cx="197.2" cy="-12.8" fill="rgb(115,223,110)" r="2.0" stroke="black" stroke-width="1" />
		<circle cx="216.5" cy="-37.8" fill="rgb(115,223,110)" r="2.0" stroke="black" stroke-width="1" />
		<circle cx="220.2" cy="-41.4" fill="rgb(115,223,110)" r="2.0" stroke="black" stroke-width="1" />
		<circle cx="213.4" cy="-38.5" fill="rgb(115,223,110)" r="2.0" stroke="black" stroke-width="1" />
		<circle cx="196.4" cy="-10.6" fill="rgb(115,223,110)" r="2.0" stroke="black" stroke-width="1" />
		<circle cx="219.4" cy="-5.7" fill="rgb(115,223,110)" r="2.0" stroke="black" stroke-width="1" />
		<rect fill="none" height="123.5" stroke="black" stroke-width="1" width="52.4" x="128.6" y="-125.2" />
		<rect fill="none" height="53.5" stroke="black" stroke-width="1" width="46.0" x="128.6" y="-125.2" />
		<rect fill="none" height="20.5" stroke="black" stroke-width="1" width="46.0" x="128.6" y="-125.2" />
		<circle cx="144.6" cy="-104.6" fill="rgb(107,228,75)" r="2.0" stroke="black" stroke-width="1" />
		<circle cx="174.6" cy="-125.2" fill="rgb(107,228,75)" r="2.0" stroke="black" stroke-width="1" />
		<circle cx="131.8" cy="-114.2" fill="rgb(107,228,75)" r="2.0" stroke="black" stroke-width="1" />
		<circle cx="169.3" cy="-117.9" fill="rgb(107,228,75)" r="2.0" stroke="black" stroke-width="1" />
		<circle cx="133.1" cy="-122.3" fill="rgb(107,228,75)" r="2.0" stroke="black" stroke-width="1" />
		<circle cx="170.4" cy="-115.7" fill="rgb(107,228,75)" r="2.0" stroke="black" stroke-width="1" />
		<circle cx="128.6" cy="-113.0" fill="rgb(107,228,75)" r="2.0" stroke="black" stroke-width="1" />
		<rect fill="none" height="16.3" stroke="black" stroke-width="1" width="35.2" x="131.7" y="-88.0" />
		<circle cx="166.9" cy="-81.3" fill="rgb(225,133,247)" r="2.0" stroke="black" stroke-width="1" />
		<circle cx="131.7" cy="-74.1" fill="rgb(225,133,247)" r="2.0" stroke="black" stroke-width="1" />
		<circle cx="133.8" cy="-88.0" fill="rgb(225,133,247)" r="2.0" stroke="black" stroke-width="1" />
		<circle cx="147.7" cy="-83.8" fill="rgb(225,133,247)" r="2.0" stroke="black" stroke-width="1" />
		<circle cx="161.7" cy="-84.3" fill="rgb(225,133,247)" r="2.0" stroke="black" stroke-width="1" />
		<circle cx="137.4" cy="-84.4" fill="rgb(225,133,247)" r="2.0" stroke="black" stroke-width="1" />
		<circle cx="135.8" cy="-71.7" fill="rgb(225,133,247)" r="2.0" stroke="black" stroke-width="1" />
		<circle cx="146.7" cy="-84.7" fill="rgb(225,133,247)" r="2.0" stroke="black" stroke-width="1" />
		<rect fill="none" height="58.6" stroke="black" stroke-width="1" width="48.2" x="132.7" y="-60.3" />
		<rect fill="none" height="28.8" stroke="black" stroke-width="1" width="44.8" x="135.0" y="-60.3" />
		<circle cx="173.8" cy="-56.1" fill="rgb(131,168,240)" r="2.0" stroke="black" stroke-width="1" />
		<circle cx="176.2" cy="-32.1" fill="rgb(131,168,240)" r="2.0" stroke="black" stroke-width="1" />
		<circle cx="161.1" cy="-51.1" fill="rgb(131,168,240)" r="2.0" stroke="black" stroke-width="1" />
		<circle cx="140.0" cy="-53.6" fill="rgb(131,168,240)" r="2.0" stroke="black" stroke-width="1" />
		<circle cx="167.1" cy="-56.7" fill="rgb(131,168,240)" r="2.0" stroke="black" stroke-width="1" />
		<circle cx="135.0" cy="-55.4" fill="rgb(131,168,240)" r="2.0" stroke="black" stroke-width="1" />
		<circle cx="153.0" cy="-60.3" fill="rgb(131,168,240)" r="2.0" stroke="black" stroke-width="1" />
		<circle cx="179.8" cy="-31.5" fill="rgb(131,168,240)" r="2.0" stroke="black" stroke-width="1" />
		<rect fill="none" height="28.4" stroke="black" stroke-width="1" width="48.2" x="132.7" y="-30.1" />
		<circle cx="135.6" cy="-8.9" fill="rgb(143,223,227)" r="2.0" stroke="black" stroke-width="1" />
		<circle cx="134.7" cy="-30.1" fill="rgb(143,223,227)" r="2.0" stroke="black" stroke-width="1" />
		<circle cx="164.6" cy="-3.8" fill="rgb(143,223,227)" r="2.0" stroke="black" stroke-width="1" />
		<circle cx="181.0" cy="-5.7" fill="rgb(143,223,227)" r="2.0" stroke="black" stroke-width="1" />
		<circle cx="132.7" cy="-1.6" fill="rgb(143,223,227)" r="2.0" stroke="black" stroke-width="1" />
		<circle cx="180.9" cy="-22.8" fill="rgb(143,223,227)" r="2.0" stroke="black" stroke-width="1" />
		<circle cx="151.4" cy="-8.1" fill="rgb(143,223,227)" r="2.0" stroke="black" stroke-width="1" />
		<circle cx="133.6" cy="-8.1" fill="rgb(143,223,227)" r="2.0" stroke="black" stroke-width="1" />
		<rect fill="none" height="251.6" stroke="black" stroke-width="1" width="125.1" x="0.2" y="-252.6" />
		<rect fill="none" height="123.5" stroke="black" stroke-width="1" width="124.4" x="0.2" y="-252.6" />
		<rect fill="none" height="121.0" stroke="black" stroke-width="1" width="60.6" x="64.0" y="-250.2" />
		<rect fill="none" height="56.5" stroke="black" stroke-width="1" width="60.6" x="64.0" y="-250.2" />
		<rect fill="none" height="39.3" stroke="black" stroke-width="1" width="22.7" x="101.9" y="-236.9" />
		<circle cx="118.9" cy="-233.9" fill="rgb(194,95,231)" r="2.0" stroke="black" stroke-width="1" />
		<circle cx="106.3" cy="-215.4" fill="rgb(194,95,231)" r="2.0" stroke="black" stroke-width="1" />
		<circle cx="118.3" cy="-209.3" fill="rgb(194,95,231)" r="2.0" stroke="black" stroke-width="1" />
		<circle cx="101.9" cy="-209.8" fill="rgb(194,95,231)" r="2.0" stroke="black" stroke-width="1" />
		<circle cx="116.7" cy="-216.1" fill="rgb(194,95,231)" r="2.0" stroke="black" stroke-width="1" />
		<circle cx="110.2" cy="-236.9" fill="rgb(194,95,231)" r="2.0" stroke="black" stroke-width="1" />
		<circle cx="124.6" cy="-197.6" fill="rgb(194,95,231)" r="2.0" stroke="black" stroke-width="1" />
		<rect fill="none" height="56.5" stroke="black" stroke-width="1" width="29.5" x="64.0" y="-250.2" />
		<circle cx="93.5" cy="-193.6" fill="rgb(229,137,165)" r="2.0" stroke="black" stroke-width="1" />
		<circle cx="78.4" cy="-227.5" fill="rgb(229,137,165)" r="2.0" stroke="black" stroke-width="1" />
		<circle cx="72.2" cy="-200.7" fill="rgb(229,137,165)" r="2.0" stroke="black" stroke-width="1" />
		<circle cx="64.0" cy="-197.0" fill="rgb(229,137,165)" r="2.0" stroke="black" stroke-width="1" />
		<circle cx="84.2" cy="-250.2" fill="rgb(229,137,165)" r="2.0" stroke="black" stroke-width="1" />
		<circle cx="65.3" cy="-240.6" fill="rgb(229,137,165)" r="2.0" stroke="black" stroke-width="1" />
		<circle cx="92.7" cy="-239.4" fill="rgb(229,137,165)" r="2.0" stroke="black" stroke-width="1" />
		<rect fill="none" height="57.0" stroke="black" stroke-width="1" width="53.8" x="70.8" y="-186.2" />
		<circle cx="81.7" cy="-129.2" fill="rgb(234,50,47)" r="2.0" stroke="black" stroke-width="1" />
		<circle cx="99.3" cy="-174.4" fill="rgb(234,50,47)" r="2.0" stroke="black" stroke-width="1" />
		<circle cx="106.9" cy="-186.2" fill="rgb(234,50,47)" r="2.0" stroke="black" stroke-width="1" />
		<circle cx="81.6" cy="-153.1" fill="rgb(234,50,47)" r="2.0" stroke="black" stroke-width="1" />
		<circle cx="80.9" cy="-142.5" fill="rgb(234,50,47)" r="2.0" stroke="black" stroke-width="1" />
		<circle cx="84.8" cy="-147.9" fill="rgb(234,50,47)" r="2.0" stroke="black" stroke-width="1" />
		<circle cx="89.0" cy="-155.1" fill="rgb(234,50,47)" r="2.0" stroke="black" stroke-width="1" />
		<circle cx="124.6" cy="-178.4" fill="rgb(234,50,47)" r="2.0" stroke="black" stroke-width="1" />
		<circle cx="70.8" cy="-181.9" fill="rgb(234,50,47)" r="2.0" stroke="black" stroke-width="1" />
		<rect fill="none" height="119.7" stroke="black" stroke-width="1" width="61.2" x="0.2" y="-252.6" />
		<rect fill="none" height="57.5" stroke="black" stroke-width="1" width="39.4" x="0.4" y="-252.6" />
		<rect fill="none" height="22.8" stroke="black" stroke-width="1" width="39.4" x="0.4" y="-252.6" />
		<circle cx="15.5" cy="-229.8" fill="rgb(216,88,190)" r="2.0" stroke="black" stroke-width="1" />
		<circle cx="37.9" cy="-244.6" fill="rgb(216,88,190)" r="2.0" stroke="black" stroke-width="1" />
		<circle cx="36.4" cy="-230.8" fill="rgb(216,88,190)" r="2.0" stroke="black" stroke-width="1" />
		<circle cx="0.4" cy="-252.6" fill="rgb(216,88,190)" r="2.0" stroke="black" stroke-width="1" />
		<circle cx="20.6" cy="-249.2" fill="rgb(216,88,190)" r="2.0" stroke="black" stroke-width="1" />
		<circle cx="8.8" cy="-250.2" fill="rgb(216,88,190)" r="2.0" stroke="black" stroke-width="1" />
		<circle cx="39.8" cy="-242.0" fill="rgb(216,88,190)" r="2.0" stroke="black" stroke-width="1" />
		<rect fill="none" height="26.9" stroke="black" stroke-width="1" width="37.2" x="0.8" y="-222.1" />
		<circle cx="20.9" cy="-212.1" fill="rgb(233,8,40)" r="2.0" stroke="black" stroke-width="1" />
		<circle cx="14.2" cy="-198.6" fill="rgb(233,8,40)" r="2.0" stroke="black" stroke-width="1" />
		<circle cx="0.8" cy="-203.6" fill="rgb(233,8,40)" r="2.0" stroke="black" stroke-width="1" />
		<circle cx="38.0" cy="-222.1" fill="rgb(233,8,40)" r="2.0" stroke="black" stroke-width="1" />
		<circle cx="19.8" cy="-195.2" fill="rgb(233,8,40)" r="2.0" stroke="black" stroke-width="1" />
		<rect fill="none" height="57.4" stroke="black" stroke-width="1" width="61.2" x="0.2" y="-190.3" />
		<rect fill="none" height="57.3" stroke="black" stroke-width="1" width="29.2" x="32.2" y="-190.3" />
		<circle cx="61.4" cy="-181.7" fill="rgb(236,163,189)" r="2.0" stroke="black" stroke-width="1" />
		<circle cx="54.7" cy="-161.2" fill="rgb(236,163,189)" r="2.0" stroke="black" stroke-width="1" />
		<circle cx="38.5" cy="-155.0" fill="rgb(236,163,189)" r="2.0" stroke="black" stroke-width="1" />
		<circle cx="55.3" cy="-139.3" fill="rgb(236,163,189)" r="2.0" stroke="black" stroke-width="1" />
		<circle cx="32.2" cy="-157.2" fill="rgb(236,163,189)" r="2.0" stroke="black" stroke-width="1" />
		<circle cx="43.9" cy="-190.3" fill="rgb(236,163,189)" r="2.0" stroke="black" stroke-width="1" />
		<circle cx="47.8" cy="-170.2" fill="rgb(236,163,189)" r="2.0" stroke="black" stroke-width="1" />
		<circle cx="56.5" cy="-132.9" fill="rgb(236,163,189)" r="2.0" stroke="black" stroke-width="1" />
		<circle cx="41.3" cy="-133.0" fill="rgb(236,163,189)" r="2.0" stroke="black" stroke-width="1" />
		<rect fill="none" height="51.9" stroke="black" stroke-width="1" width="16.5" x="0.2" y="-184.8" />
		<circle cx="8.5" cy="-146.3" fill="rgb(33,24,206)" r="2.0" stroke="black" stroke-width="1" />
		<circle cx="4.9" cy="-180.9" fill="rgb(33,24,206)" r="2.0" stroke="black" stroke-width="1" />
		<circle cx="16.7" cy="-134.4" fill="rgb(33,24,206)" r="2.0" stroke="black" stroke-width="1" />
		<circle cx="0.2" cy="-157.8" fill="rgb(33,24,206)" r="2.0" stroke="black" stroke-width="1" />
		<circle cx="9.3" cy="-174.5" fill="rgb(33,24,206)" r="2.0" stroke="black" stroke-width="1" />
		<circle cx="4.6" cy="-159.0" fill="rgb(33,24,206)" r="2.0" stroke="black" stroke-width="1" />
		<circle cx="13.7" cy="-184.8" fill="rgb(33,24,206)" r="2.0" stroke="black" stroke-width="1" />
		<circle cx="16.7" cy="-132.9" fill="rgb(33,24,206)" r="2.0" stroke="black" stroke-width="1" />
		<circle cx="6.7" cy="-150.0" fill="rgb(33,24,206)" r="2.0" stroke="black" stroke-width="1" />
		<circle cx="15.4" cy="-166.7" fill="rgb(33,24,206)" r="2.0" stroke="black" stroke-width="1" />
		<rect fill="none" height="125.4" stroke="black" stroke-width="1" width="117.3" x="8.0" y="-126.5" />
		<rect fill="none" height="60.6" stroke="black" stroke-width="1" width="99.1" x="23.2" y="-126.5" />
		<rect fill="none" height="48.1" stroke="black" stroke-width="1" width="48.1" x="74.2" y="-114.4" />
		<circle cx="122.3" cy="-111.7" fill="rgb(234,226,161)" r="2.0" stroke="black" stroke-width="1" />
		<circle cx="106.1" cy="-70.3" fill="rgb(234,226,161)" r="2.0" stroke="black" stroke-width="1" />
		<circle cx="94.8" cy="-110.3" fill="rgb(234,226,161)" r="2.0" stroke="black" stroke-width="1" />
		<circle cx="99.3" cy="-114.4" fill="rgb(234,226,161)" r="2.0" stroke="black" stroke-width="1" />
		<circle cx="95.2" cy="-71.8" fill="rgb(234,226,161)" r="2.0" stroke="black" stroke-width="1" />
		<circle cx="108.6" cy="-66.3" fill="rgb(234,226,161)" r="2.0" stroke="black" stroke-width="1" />
		<circle cx="74.2" cy="-107.9" fill="rgb(234,226,161)" r="2.0" stroke="black" stroke-width="1" />
		<circle cx="117.7" cy="-98.0" fill="rgb(234,226,161)" r="2.0" stroke="black" stroke-width="1" />
		<circle cx="96.9" cy="-67.0" fill="rgb(234,226,161)" r="2.0" stroke="black" stroke-width="1" />
		<circle cx="108.6" cy="-97.4" fill="rgb(234,226,161)" r="2.0" stroke="black" stroke-width="1" />
		<rect fill="none" height="60.6" stroke="black" stroke-width="1" width="49.5" x="23.2" y="-126.5" />
		<circle cx="42.6" cy="-70.4" fill="rgb(156,248,187)" r="2.0" stroke="black" stroke-width="1" />
		<circle cx="23.2" cy="-126.5" fill="rgb(156,248,187)" r="2.0" stroke="black" stroke-width="1" />
		<circle cx="45.7" cy="-119.8" fill="rgb(156,248,187)" r="2.0" stroke="black" stroke-width="1" />
		<circle cx="52.0" cy="-122.0" fill="rgb(156,248,187)" r="2.0" stroke="black" stroke-width="1" />
		<circle cx="72.7" cy="-68.9" fill="rgb(156,248,187)" r="2.0" stroke="black" stroke-width="1" />
		<circle cx="26.0" cy="-65.8" fill="rgb(156,248,187)" r="2.0" stroke="black" stroke-width="1" />
		<circle cx="26.6" cy="-79.4" fill="rgb(156,248,187)" r="2.0" stroke="black" stroke-width="1" />
		<circle cx="59.8" cy="-95.1" fill="rgb(156,248,187)" r="2.0" stroke="black" stroke-width="1" />
		<circle cx="61.6" cy="-116.5" fill="rgb(156,248,187)" r="2.0" stroke="black" stroke-width="1" />
		<circle cx="24.7" cy="-88.0" fill="rgb(156,248,187)" r="2.0" stroke="black" stroke-width="1" />
		<rect fill="none" height="58.5" stroke="black" stroke-width="1" width="117.3" x="8.0" y="-59.5" />
		<rect fill="none" height="52.0" stroke="black" stroke-width="1" width="49.3" x="76.0" y="-59.5" />
		<rect fill="none" height="25.9" stroke="black" stroke-width="1" width="44.2" x="76.0" y="-59.5" />
		<circle cx="117.4" cy="-33.7" fill="rgb(210,229,125)" r="2.0" stroke="black" stroke-width="1" />
		<circle cx="93.5" cy="-41.5" fill="rgb(210,229,125)" r="2.0" stroke="black" stroke-width="1" />
		<circle cx="116.6" cy="-34.6" fill="rgb(210,229,125)" r="2.0" stroke="black" stroke-width="1" />
		<circle cx="76.0" cy="-41.0" fill="rgb(210,229,125)" r="2.0" stroke="black" stroke-width="1" />
		<circle cx="110.6" cy="-45.0" fill="rgb(210,229,125)" r="2.0" stroke="black" stroke-width="1" />
		<circle cx="120.2" cy="-59.5" fill="rgb(210,229,125)" r="2.0" stroke="black" stroke-width="1" />
		<circle cx="88.5" cy="-49.1" fill="rgb(210,229,125)" r="2.0" stroke="black" stroke-width="1" />
		<rect fill="none" height="19.4" stroke="black" stroke-width="1" width="41.3" x="84.0" y="-26.9" />
		<circle cx="84.0" cy="-12.2" fill="rgb(76,231,118)" r="2.0" stroke="black" stroke-width="1" />
		<circle cx="98.3" cy="-18.9" fill="rgb(76,231,118)" r="2.0" stroke="black" stroke-width="1" />
		<circle cx="125.4" cy="-7.5" fill="rgb(76,231,118)" r="2.0" stroke="black" stroke-width="1" />
		<circle cx="94.4" cy="-26.9" fill="rgb(76,231,118)" r="2.0" stroke="black" stroke-width="1" />
		<rect fill="none" height="53.4" stroke="black" stroke-width="1" width="57.0" x="8.0" y="-54.5" />
		<rect fill="none" height="34.1" stroke="black" stroke-width="1" width="26.8" x="38.2" y="-54.1" />
		<circle cx="39.3" cy="-54.1" fill="rgb(234,241,49)" r="2.0" stroke="black" stroke-width="1" />
		<circle cx="40.4" cy="-45.3" fill="rgb(234,241,49)" r="2.0" stroke="black" stroke-width="1" />
		<circle cx="65.0" cy="-20.0" fill="rgb(234,241,49)" r="2.0" stroke="black" stroke-width="1" />
		<circle cx="48.2" cy="-31.4" fill="rgb(234,241,49)" r="2.0" stroke="black" stroke-width="1" />
		<circle cx="40.9" cy="-42.5" fill="rgb(234,241,49)" r="2.0" stroke="black" stroke-width="1" />
		<circle cx="41.0" cy="-31.7" fill="rgb(234,241,49)" r="2.0" stroke="black" stroke-width="1" />
		<circle cx="56.7" cy="-36.0" fill="rgb(234,241,49)" r="2.0" stroke="black" stroke-width="1" />
		<circle cx="38.2" cy="-40.9" fill="rgb(234,241,49)" r="2.0" stroke="black" stroke-width="1" />
		<rect fill="none" height="53.4" stroke="black" stroke-width="1" width="25.4" x="8.0" y="-54.5" />
		<circle cx="17.1" cy="-2.0" fill="rgb(145,226,216)" r="2.0" stroke="black" stroke-width="1" />
		<circle cx="33.4" cy="-54.5" fill="rgb(145,226,216)" r="2.0" stroke="black" stroke-width="1" />
		<circle cx="20.5" cy="-1.1" fill="rgb(145,226,216)" r="2.0" stroke="black" stroke-width="1" />
		<circle cx="27.4" cy="-9.0" fill="rgb(145,226,216)" r="2.0" stroke="black" stroke-width="1" />
		<circle cx="25.6" cy="-27.6" fill="rgb(145,226,216)" r="2.0" stroke="black" stroke-width="1" />
		<circle cx="8.0" cy="-43.7" fill="rgb(145,226,216)" r="2.0" stroke="black" stroke-width="1" />
		<rect fill="none" height="256.0" stroke="none" stroke-width="1" width="256.0" x="0.0" y="-256.0" />
	</g>
</svg>